<?xml version="1.0" encoding="utf-8"?>
<!DOCTYPE eagle SYSTEM "eagle.dtd">
<eagle version="9.6.2">
<drawing>
<settings>
<setting alwaysvectorfont="no"/>
<setting verticaltext="up"/>
</settings>
<grid distance="1" unitdist="mm" unit="mm" style="lines" multiple="1" display="no" altdistance="0.1" altunitdist="mm" altunit="mm"/>
<layers>
<layer number="1" name="Top" color="4" fill="1" visible="yes" active="yes"/>
<layer number="16" name="Bottom" color="1" fill="1" visible="yes" active="yes"/>
<layer number="17" name="Pads" color="2" fill="1" visible="yes" active="yes"/>
<layer number="18" name="Vias" color="2" fill="1" visible="yes" active="yes"/>
<layer number="19" name="Unrouted" color="6" fill="1" visible="yes" active="yes"/>
<layer number="20" name="Dimension" color="24" fill="1" visible="yes" active="yes"/>
<layer number="21" name="tPlace" color="7" fill="1" visible="yes" active="yes"/>
<layer number="22" name="bPlace" color="7" fill="1" visible="yes" active="yes"/>
<layer number="23" name="tOrigins" color="15" fill="1" visible="yes" active="yes"/>
<layer number="24" name="bOrigins" color="15" fill="1" visible="yes" active="yes"/>
<layer number="25" name="tNames" color="7" fill="1" visible="yes" active="yes"/>
<layer number="26" name="bNames" color="7" fill="1" visible="yes" active="yes"/>
<layer number="27" name="tValues" color="7" fill="1" visible="yes" active="yes"/>
<layer number="28" name="bValues" color="7" fill="1" visible="yes" active="yes"/>
<layer number="29" name="tStop" color="7" fill="3" visible="no" active="yes"/>
<layer number="30" name="bStop" color="7" fill="6" visible="no" active="yes"/>
<layer number="31" name="tCream" color="7" fill="4" visible="no" active="yes"/>
<layer number="32" name="bCream" color="7" fill="5" visible="no" active="yes"/>
<layer number="33" name="tFinish" color="6" fill="3" visible="no" active="yes"/>
<layer number="34" name="bFinish" color="6" fill="6" visible="no" active="yes"/>
<layer number="35" name="tGlue" color="7" fill="4" visible="no" active="yes"/>
<layer number="36" name="bGlue" color="7" fill="5" visible="no" active="yes"/>
<layer number="37" name="tTest" color="7" fill="1" visible="no" active="yes"/>
<layer number="38" name="bTest" color="7" fill="1" visible="no" active="yes"/>
<layer number="39" name="tKeepout" color="4" fill="11" visible="yes" active="yes"/>
<layer number="40" name="bKeepout" color="1" fill="11" visible="yes" active="yes"/>
<layer number="41" name="tRestrict" color="4" fill="10" visible="yes" active="yes"/>
<layer number="42" name="bRestrict" color="1" fill="10" visible="yes" active="yes"/>
<layer number="43" name="vRestrict" color="2" fill="10" visible="yes" active="yes"/>
<layer number="44" name="Drills" color="7" fill="1" visible="no" active="yes"/>
<layer number="45" name="Holes" color="7" fill="1" visible="no" active="yes"/>
<layer number="46" name="Milling" color="3" fill="1" visible="no" active="yes"/>
<layer number="47" name="Measures" color="7" fill="1" visible="no" active="yes"/>
<layer number="48" name="Document" color="7" fill="1" visible="yes" active="yes"/>
<layer number="49" name="Reference" color="7" fill="1" visible="yes" active="yes"/>
<layer number="50" name="dxf" color="7" fill="1" visible="no" active="no"/>
<layer number="51" name="tDocu" color="7" fill="1" visible="yes" active="yes"/>
<layer number="52" name="bDocu" color="7" fill="1" visible="yes" active="yes"/>
<layer number="53" name="tGND_GNDA" color="7" fill="9" visible="no" active="no"/>
<layer number="54" name="bGND_GNDA" color="1" fill="9" visible="no" active="no"/>
<layer number="56" name="wert" color="7" fill="1" visible="no" active="no"/>
<layer number="57" name="tCAD" color="7" fill="1" visible="no" active="no"/>
<layer number="59" name="tCarbon" color="7" fill="1" visible="no" active="no"/>
<layer number="60" name="bCarbon" color="7" fill="1" visible="no" active="no"/>
<layer number="88" name="SimResults" color="9" fill="1" visible="no" active="no"/>
<layer number="89" name="SimProbes" color="9" fill="1" visible="no" active="no"/>
<layer number="90" name="Modules" color="5" fill="1" visible="no" active="no"/>
<layer number="91" name="Nets" color="2" fill="1" visible="no" active="no"/>
<layer number="92" name="Busses" color="1" fill="1" visible="no" active="no"/>
<layer number="93" name="Pins" color="2" fill="1" visible="no" active="no"/>
<layer number="94" name="Symbols" color="4" fill="1" visible="no" active="no"/>
<layer number="95" name="Names" color="7" fill="1" visible="no" active="no"/>
<layer number="96" name="Values" color="7" fill="1" visible="no" active="no"/>
<layer number="97" name="Info" color="7" fill="1" visible="no" active="no"/>
<layer number="98" name="Guide" color="6" fill="1" visible="no" active="no"/>
<layer number="99" name="SpiceOrder" color="7" fill="1" visible="no" active="no"/>
<layer number="100" name="Muster" color="7" fill="1" visible="no" active="no"/>
<layer number="101" name="Patch_Top" color="12" fill="4" visible="yes" active="yes"/>
<layer number="102" name="Vscore" color="7" fill="1" visible="yes" active="yes"/>
<layer number="103" name="tMap" color="7" fill="1" visible="yes" active="yes"/>
<layer number="104" name="Name" color="16" fill="1" visible="yes" active="yes"/>
<layer number="105" name="tPlate" color="7" fill="1" visible="yes" active="yes"/>
<layer number="106" name="bPlate" color="7" fill="1" visible="yes" active="yes"/>
<layer number="107" name="Crop" color="7" fill="1" visible="yes" active="yes"/>
<layer number="108" name="tplace-old" color="10" fill="1" visible="yes" active="yes"/>
<layer number="109" name="ref-old" color="11" fill="1" visible="yes" active="yes"/>
<layer number="110" name="fp0" color="7" fill="1" visible="yes" active="yes"/>
<layer number="111" name="LPC17xx" color="7" fill="1" visible="yes" active="yes"/>
<layer number="112" name="tSilk" color="7" fill="1" visible="yes" active="yes"/>
<layer number="113" name="IDFDebug" color="4" fill="1" visible="yes" active="yes"/>
<layer number="114" name="Badge_Outline" color="7" fill="1" visible="no" active="yes"/>
<layer number="115" name="ReferenceISLANDS" color="7" fill="1" visible="no" active="yes"/>
<layer number="116" name="Patch_BOT" color="9" fill="4" visible="yes" active="yes"/>
<layer number="118" name="Rect_Pads" color="7" fill="1" visible="no" active="yes"/>
<layer number="121" name="_tsilk" color="7" fill="1" visible="yes" active="yes"/>
<layer number="122" name="_bsilk" color="7" fill="1" visible="yes" active="yes"/>
<layer number="123" name="tTestmark" color="7" fill="1" visible="yes" active="yes"/>
<layer number="124" name="bTestmark" color="7" fill="1" visible="yes" active="yes"/>
<layer number="125" name="_tNames" color="7" fill="1" visible="yes" active="yes"/>
<layer number="126" name="_bNames" color="7" fill="1" visible="yes" active="yes"/>
<layer number="127" name="_tValues" color="7" fill="1" visible="yes" active="yes"/>
<layer number="128" name="_bValues" color="7" fill="1" visible="yes" active="yes"/>
<layer number="129" name="Mask" color="7" fill="1" visible="yes" active="yes"/>
<layer number="131" name="tAdjust" color="7" fill="1" visible="yes" active="yes"/>
<layer number="132" name="bAdjust" color="7" fill="1" visible="yes" active="yes"/>
<layer number="144" name="Drill_legend" color="7" fill="1" visible="yes" active="yes"/>
<layer number="150" name="Notes" color="7" fill="1" visible="yes" active="yes"/>
<layer number="151" name="HeatSink" color="7" fill="1" visible="yes" active="yes"/>
<layer number="152" name="_bDocu" color="7" fill="1" visible="yes" active="yes"/>
<layer number="153" name="FabDoc1" color="7" fill="1" visible="yes" active="yes"/>
<layer number="154" name="FabDoc2" color="7" fill="1" visible="yes" active="yes"/>
<layer number="155" name="FabDoc3" color="7" fill="1" visible="yes" active="yes"/>
<layer number="199" name="Contour" color="7" fill="1" visible="yes" active="yes"/>
<layer number="200" name="200bmp" color="1" fill="10" visible="yes" active="yes"/>
<layer number="201" name="201bmp" color="2" fill="10" visible="yes" active="yes"/>
<layer number="202" name="202bmp" color="3" fill="10" visible="yes" active="yes"/>
<layer number="203" name="203bmp" color="4" fill="10" visible="yes" active="yes"/>
<layer number="204" name="204bmp" color="5" fill="10" visible="yes" active="yes"/>
<layer number="205" name="205bmp" color="6" fill="10" visible="yes" active="yes"/>
<layer number="206" name="206bmp" color="7" fill="10" visible="yes" active="yes"/>
<layer number="207" name="207bmp" color="8" fill="10" visible="yes" active="yes"/>
<layer number="208" name="208bmp" color="9" fill="10" visible="yes" active="yes"/>
<layer number="209" name="209bmp" color="7" fill="1" visible="yes" active="yes"/>
<layer number="210" name="210bmp" color="7" fill="1" visible="yes" active="yes"/>
<layer number="211" name="211bmp" color="7" fill="1" visible="yes" active="yes"/>
<layer number="212" name="212bmp" color="7" fill="1" visible="yes" active="yes"/>
<layer number="213" name="213bmp" color="7" fill="1" visible="yes" active="yes"/>
<layer number="214" name="214bmp" color="7" fill="1" visible="yes" active="yes"/>
<layer number="215" name="215bmp" color="7" fill="1" visible="yes" active="yes"/>
<layer number="216" name="216bmp" color="7" fill="1" visible="yes" active="yes"/>
<layer number="217" name="217bmp" color="18" fill="1" visible="no" active="no"/>
<layer number="218" name="218bmp" color="19" fill="1" visible="no" active="no"/>
<layer number="219" name="219bmp" color="20" fill="1" visible="no" active="no"/>
<layer number="220" name="220bmp" color="21" fill="1" visible="no" active="no"/>
<layer number="221" name="221bmp" color="22" fill="1" visible="no" active="no"/>
<layer number="222" name="222bmp" color="23" fill="1" visible="no" active="no"/>
<layer number="223" name="223bmp" color="24" fill="1" visible="no" active="no"/>
<layer number="224" name="224bmp" color="25" fill="1" visible="no" active="no"/>
<layer number="225" name="225bmp" color="7" fill="1" visible="yes" active="yes"/>
<layer number="226" name="226bmp" color="7" fill="1" visible="yes" active="yes"/>
<layer number="227" name="227bmp" color="7" fill="1" visible="yes" active="yes"/>
<layer number="228" name="228bmp" color="7" fill="1" visible="yes" active="yes"/>
<layer number="229" name="229bmp" color="7" fill="1" visible="yes" active="yes"/>
<layer number="230" name="230bmp" color="7" fill="1" visible="yes" active="yes"/>
<layer number="231" name="231bmp" color="7" fill="1" visible="yes" active="yes"/>
<layer number="248" name="Housing" color="7" fill="1" visible="yes" active="yes"/>
<layer number="249" name="Edge" color="7" fill="1" visible="yes" active="yes"/>
<layer number="250" name="Descript" color="3" fill="1" visible="no" active="no"/>
<layer number="251" name="SMDround" color="12" fill="11" visible="no" active="no"/>
<layer number="254" name="cooling" color="7" fill="1" visible="yes" active="yes"/>
<layer number="255" name="routoute" color="7" fill="1" visible="yes" active="yes"/>
</layers>
<board>
<plain>
<wire x1="0" y1="30" x2="72" y2="30" width="0" layer="20"/>
<wire x1="72" y1="30" x2="72" y2="80" width="0" layer="20"/>
<wire x1="72" y1="80" x2="0" y2="80" width="0" layer="20"/>
<wire x1="0" y1="80" x2="0" y2="30" width="0" layer="20"/>
<text x="41.9" y="75.5" size="1.27" layer="25">CIN</text>
<text x="64.1" y="71" size="1.27" layer="25">COUT</text>
<text x="41.8" y="73.9" size="1.27" layer="27">100uF</text>
<text x="64.1" y="69.4" size="1.27" layer="27">1000uF</text>
<text x="0.7" y="78.3" size="1.016" layer="25">1856260</text>
<text x="8.7" y="39.5" size="1.27" layer="25">CF18</text>
<text x="8.6" y="37.5" size="1.27" layer="27">6k Ohm</text>
</plain>
<libraries>
<library name="Lab6_Library">
<packages>
<package name="1572-1039-CIN">
<pad name="P$1" x="0" y="0" drill="1"/>
<pad name="P$2" x="2" y="0" drill="1"/>
<circle x="1" y="0" radius="5" width="0.127" layer="21"/>
<wire x1="0" y1="0" x2="0.6" y2="0" width="0.127" layer="21"/>
<wire x1="0.6" y1="0" x2="0.6" y2="1" width="0.127" layer="21"/>
<wire x1="0.6" y1="0" x2="0.6" y2="-1" width="0.127" layer="21"/>
<wire x1="2" y1="-1" x2="1" y2="0" width="0.127" layer="21" curve="-90"/>
<wire x1="1" y1="0" x2="2" y2="1" width="0.127" layer="21" curve="-90"/>
<wire x1="1" y1="0" x2="2" y2="0" width="0.127" layer="21"/>
<text x="0" y="0.8" size="0.6096" layer="21">+</text>
</package>
<package name="1N5820">
<pad name="P$1" x="0" y="0" drill="1.3"/>
<pad name="P$2" x="9" y="0" drill="1.3"/>
<wire x1="0" y1="0" x2="4" y2="0" width="0.127" layer="21"/>
<wire x1="4" y1="0" x2="4" y2="2" width="0.127" layer="21"/>
<wire x1="4" y1="2" x2="6" y2="0" width="0.127" layer="21"/>
<wire x1="6" y1="0" x2="4" y2="-2" width="0.127" layer="21"/>
<wire x1="4" y1="-2" x2="4" y2="0" width="0.127" layer="21"/>
<wire x1="6" y1="0" x2="6" y2="2" width="0.127" layer="21"/>
<wire x1="6" y1="2" x2="5.3" y2="2" width="0.127" layer="21"/>
<wire x1="6" y1="0" x2="6" y2="-2" width="0.127" layer="21"/>
<wire x1="6" y1="-2" x2="6.6" y2="-2" width="0.127" layer="21"/>
<wire x1="6.6" y1="-2" x2="6.6" y2="-1.5" width="0.127" layer="21"/>
<wire x1="6" y1="0" x2="9" y2="0" width="0.127" layer="21"/>
<wire x1="5.3" y1="2" x2="5.3" y2="1.5" width="0.127" layer="21"/>
<text x="1" y="2.7" size="1.27" layer="25">1N5820</text>
<text x="2.032" y="0.635" size="1.27" layer="21">+</text>
<text x="7.366" y="0.762" size="1.27" layer="21">-</text>
</package>
<package name="CF18JT6K20CT">
<pad name="P$1" x="0" y="0" drill="0.5"/>
<pad name="P$2" x="4" y="0" drill="0.5"/>
<wire x1="0" y1="0" x2="0.5" y2="0" width="0.127" layer="21"/>
<wire x1="0.5" y1="0" x2="1" y2="1" width="0.127" layer="21"/>
<wire x1="1" y1="1" x2="1.5" y2="-1" width="0.127" layer="21"/>
<wire x1="1.5" y1="-1" x2="2" y2="1" width="0.127" layer="21"/>
<wire x1="2" y1="1" x2="2.5" y2="-1" width="0.127" layer="21"/>
<wire x1="2.5" y1="-1" x2="3" y2="1" width="0.127" layer="21"/>
<wire x1="3" y1="1" x2="3.4" y2="0" width="0.127" layer="21"/>
<wire x1="3.4" y1="0" x2="4" y2="0" width="0.127" layer="21"/>
</package>
<package name="+-">
<pad name="P$1" x="0" y="0" drill="1"/>
<pad name="P$2" x="5" y="0" drill="1"/>
<text x="-1.27" y="0.508" size="1.27" layer="25">+</text>
<text x="3.937" y="0.508" size="1.27" layer="25">-</text>
</package>
<package name="1572-1055-COUT">
<pad name="P$1" x="0" y="0" drill="0.9"/>
<pad name="P$2" x="8" y="0" drill="0.9"/>
<circle x="4" y="0" radius="8" width="0.127" layer="21"/>
<wire x1="0" y1="0" x2="1.4" y2="0" width="0.127" layer="21"/>
<wire x1="1.5" y1="0" x2="3" y2="0" width="0.127" layer="21"/>
<wire x1="3" y1="0" x2="3" y2="-1" width="0.127" layer="21"/>
<wire x1="3" y1="0" x2="3" y2="1" width="0.127" layer="21"/>
<wire x1="4.6" y1="-1" x2="3.6" y2="0" width="0.127" layer="21" curve="-90"/>
<wire x1="3.6" y1="0" x2="4.6" y2="1" width="0.127" layer="21" curve="-90"/>
<wire x1="3.6" y1="0" x2="8.1" y2="0" width="0.127" layer="21"/>
<text x="1.5" y="0.4" size="1.27" layer="21">+</text>
</package>
<package name="CPF11K0000FKEE6-R1">
<pad name="P$1" x="0" y="0" drill="0.7"/>
<pad name="P$2" x="7" y="0" drill="0.7"/>
<wire x1="5.715" y1="0" x2="7" y2="0" width="0.127" layer="21"/>
<wire x1="0" y1="0" x2="1.905" y2="0" width="0.127" layer="21"/>
<wire x1="1.905" y1="0" x2="2.54" y2="1.27" width="0.127" layer="21"/>
<wire x1="2.54" y1="1.27" x2="3.175" y2="-1.27" width="0.127" layer="21"/>
<wire x1="3.175" y1="-1.27" x2="3.81" y2="1.27" width="0.127" layer="21"/>
<wire x1="3.81" y1="1.27" x2="4.445" y2="-1.27" width="0.127" layer="21"/>
<wire x1="4.445" y1="-1.27" x2="5.08" y2="1.27" width="0.127" layer="21"/>
<wire x1="5.08" y1="1.27" x2="5.715" y2="0" width="0.127" layer="21"/>
<text x="1.651" y="1.778" size="1.27" layer="25">CPF1</text>
<text x="0.762" y="-2.921" size="1.27" layer="27">1k Ohm</text>
</package>
<package name="M10144">
<pad name="P$1" x="0" y="0" drill="0.6"/>
<pad name="P$2" x="7.5" y="0" drill="0.6"/>
<wire x1="0" y1="0" x2="1.5" y2="0" width="0.127" layer="21"/>
<wire x1="7.5" y1="0" x2="6.7" y2="0" width="0.127" layer="21"/>
<wire x1="1.5" y1="0" x2="2.4" y2="0.9" width="0.127" layer="21" curve="-90"/>
<wire x1="2.4" y1="0.9" x2="2.5" y2="0.9" width="0.127" layer="21"/>
<wire x1="2.5" y1="0.9" x2="3.2" y2="0.2" width="0.127" layer="21" curve="-90"/>
<wire x1="3.2" y1="0.2" x2="3.2" y2="0" width="0.127" layer="21"/>
<wire x1="3.2" y1="0" x2="4.1" y2="0.9" width="0.127" layer="21" curve="-90"/>
<wire x1="4.1" y1="0.9" x2="4.2" y2="0.9" width="0.127" layer="21"/>
<wire x1="4.2" y1="0.9" x2="4.8" y2="0.3" width="0.127" layer="21" curve="-90"/>
<wire x1="4.8" y1="0.3" x2="4.8" y2="0" width="0.127" layer="21"/>
<wire x1="4.8" y1="0" x2="5.7" y2="0.9" width="0.127" layer="21" curve="-90"/>
<wire x1="5.7" y1="0.9" x2="6" y2="0.9" width="0.127" layer="21"/>
<wire x1="6" y1="0.9" x2="6.7" y2="0.2" width="0.127" layer="21" curve="-90"/>
<wire x1="6.7" y1="0.2" x2="6.7" y2="0" width="0.127" layer="21"/>
<text x="0.8" y="1.6" size="1.27" layer="25">M10144</text>
<text x="2.1" y="-1.9" size="1.27" layer="27">68uH</text>
</package>
<package name="NF123G-302">
<pad name="P$1" x="0" y="0" drill="1"/>
<pad name="P$2" x="12.5" y="0" drill="1"/>
<wire x1="0" y1="0" x2="2" y2="0" width="0.127" layer="21"/>
<wire x1="2" y1="0" x2="2" y2="2" width="0.127" layer="21"/>
<wire x1="2" y1="0" x2="2" y2="-2" width="0.127" layer="21"/>
<wire x1="2" y1="-2" x2="4" y2="-2" width="0.127" layer="21"/>
<wire x1="2" y1="2" x2="4" y2="2" width="0.127" layer="21"/>
<wire x1="12.5" y1="0" x2="10.5" y2="0" width="0.127" layer="21"/>
<wire x1="10.5" y1="0" x2="10.5" y2="2" width="0.127" layer="21"/>
<wire x1="10.5" y1="2" x2="9" y2="2" width="0.127" layer="21"/>
<wire x1="10.5" y1="0" x2="10.5" y2="-2" width="0.127" layer="21"/>
<wire x1="10.5" y1="-2" x2="9" y2="-2" width="0.127" layer="21"/>
<circle x="6.5" y="0" radius="10.01798125" width="0.127" layer="21"/>
<circle x="6.5" y="0" radius="3.11448125" width="0.127" layer="21"/>
<text x="5.8" y="-0.6" size="1.27" layer="21">M</text>
</package>
</packages>
</library>
<library name="LM2576T">
<packages>
<package name="T05A_TEX">
<pad name="1" x="0" y="0" drill="1.0922" diameter="1.6002"/>
<pad name="2" x="1.7018" y="0" drill="1.0922" diameter="1.6002"/>
<pad name="3" x="3.4036" y="0" drill="1.0922" diameter="1.6002"/>
<pad name="4" x="5.1054" y="0" drill="1.0922" diameter="1.6002"/>
<pad name="5" x="6.8072" y="0" drill="1.0922" diameter="1.6002"/>
<wire x1="-1.9812" y1="-1.9812" x2="8.7884" y2="-1.9812" width="0.1524" layer="21"/>
<wire x1="8.7884" y1="-1.9812" x2="8.7884" y2="2.9972" width="0.1524" layer="21"/>
<wire x1="8.7884" y1="2.9972" x2="-1.9812" y2="2.9972" width="0.1524" layer="21"/>
<wire x1="-1.9812" y1="2.9972" x2="-1.9812" y2="-1.9812" width="0.1524" layer="21"/>
<wire x1="-3.556" y1="0" x2="-3.9624" y2="0" width="0.1524" layer="21" curve="-180"/>
<wire x1="-3.9624" y1="0" x2="-3.556" y2="0" width="0.1524" layer="21" curve="-180"/>
<wire x1="-0.254" y1="0" x2="0.254" y2="0" width="0.1524" layer="51"/>
<wire x1="0" y1="-0.254" x2="0" y2="0.254" width="0.1524" layer="51"/>
<wire x1="-1.8796" y1="-1.8288" x2="8.6868" y2="-1.8288" width="0.1524" layer="51"/>
<wire x1="8.6868" y1="-1.8288" x2="8.6868" y2="2.8448" width="0.1524" layer="51"/>
<wire x1="8.6868" y1="2.8448" x2="-1.8796" y2="2.8448" width="0.1524" layer="51"/>
<wire x1="-1.8796" y1="2.8448" x2="-1.8796" y2="-1.8288" width="0.1524" layer="51"/>
<wire x1="-1.1684" y1="0" x2="-1.5748" y2="0" width="0" layer="51" curve="-180"/>
<wire x1="-1.5748" y1="0" x2="-1.1684" y2="0" width="0" layer="51" curve="-180"/>
<text x="0.127" y="-0.127" size="1.27" layer="25" ratio="6" rot="SR0">&gt;Name</text>
<text x="1.6764" y="-0.127" size="1.27" layer="27" ratio="6" rot="SR0">&gt;Value</text>
</package>
</packages>
</library>
</libraries>
<attributes>
</attributes>
<variantdefs>
</variantdefs>
<classes>
<class number="0" name="default" width="0" drill="0">
</class>
</classes>
<designrules name="default">
<description language="de">&lt;b&gt;EAGLE Design Rules&lt;/b&gt;
&lt;p&gt;
Die Standard-Design-Rules sind so gewählt, dass sie für 
die meisten Anwendungen passen. Sollte ihre Platine 
besondere Anforderungen haben, treffen Sie die erforderlichen
Einstellungen hier und speichern die Design Rules unter 
einem neuen Namen ab.</description>
<description language="en">&lt;b&gt;EAGLE Design Rules&lt;/b&gt;
&lt;p&gt;
The default Design Rules have been set to cover
a wide range of applications. Your particular design
may have different requirements, so please make the
necessary adjustments and save your customized
design rules under a new name.</description>
<param name="layerSetup" value="(1*16)"/>
<param name="mtCopper" value="0.035mm 0.035mm 0.035mm 0.035mm 0.035mm 0.035mm 0.035mm 0.035mm 0.035mm 0.035mm 0.035mm 0.035mm 0.035mm 0.035mm 0.035mm 0.035mm"/>
<param name="mtIsolate" value="1.5mm 0.15mm 0.2mm 0.15mm 0.2mm 0.15mm 0.2mm 0.15mm 0.2mm 0.15mm 0.2mm 0.15mm 0.2mm 0.15mm 0.2mm"/>
<param name="mdWireWire" value="6mil"/>
<param name="mdWirePad" value="6mil"/>
<param name="mdWireVia" value="6mil"/>
<param name="mdPadPad" value="6mil"/>
<param name="mdPadVia" value="6mil"/>
<param name="mdViaVia" value="6mil"/>
<param name="mdSmdPad" value="6mil"/>
<param name="mdSmdVia" value="6mil"/>
<param name="mdSmdSmd" value="6mil"/>
<param name="mdViaViaSameLayer" value="6mil"/>
<param name="mnLayersViaInSmd" value="2"/>
<param name="mdCopperDimension" value="40mil"/>
<param name="mdDrill" value="6mil"/>
<param name="mdSmdStop" value="0mil"/>
<param name="msWidth" value="6mil"/>
<param name="msDrill" value="0.35mm"/>
<param name="msMicroVia" value="9.99mm"/>
<param name="msBlindViaRatio" value="0.5"/>
<param name="rvPadTop" value="0.25"/>
<param name="rvPadInner" value="0.25"/>
<param name="rvPadBottom" value="0.25"/>
<param name="rvViaOuter" value="0.25"/>
<param name="rvViaInner" value="0.25"/>
<param name="rvMicroViaOuter" value="0.25"/>
<param name="rvMicroViaInner" value="0.25"/>
<param name="rlMinPadTop" value="10mil"/>
<param name="rlMaxPadTop" value="20mil"/>
<param name="rlMinPadInner" value="10mil"/>
<param name="rlMaxPadInner" value="20mil"/>
<param name="rlMinPadBottom" value="10mil"/>
<param name="rlMaxPadBottom" value="20mil"/>
<param name="rlMinViaOuter" value="8mil"/>
<param name="rlMaxViaOuter" value="20mil"/>
<param name="rlMinViaInner" value="8mil"/>
<param name="rlMaxViaInner" value="20mil"/>
<param name="rlMinMicroViaOuter" value="4mil"/>
<param name="rlMaxMicroViaOuter" value="20mil"/>
<param name="rlMinMicroViaInner" value="4mil"/>
<param name="rlMaxMicroViaInner" value="20mil"/>
<param name="psTop" value="-1"/>
<param name="psBottom" value="-1"/>
<param name="psFirst" value="-1"/>
<param name="psElongationLong" value="100"/>
<param name="psElongationOffset" value="100"/>
<param name="mvStopFrame" value="1"/>
<param name="mvCreamFrame" value="0"/>
<param name="mlMinStopFrame" value="4mil"/>
<param name="mlMaxStopFrame" value="4mil"/>
<param name="mlMinCreamFrame" value="0mil"/>
<param name="mlMaxCreamFrame" value="0mil"/>
<param name="mlViaStopLimit" value="0mil"/>
<param name="srRoundness" value="0"/>
<param name="srMinRoundness" value="0mil"/>
<param name="srMaxRoundness" value="0mil"/>
<param name="slThermalIsolate" value="10mil"/>
<param name="slThermalsForVias" value="0"/>
<param name="dpMaxLengthDifference" value="10mm"/>
<param name="dpGapFactor" value="2.5"/>
<param name="checkAngle" value="0"/>
<param name="checkFont" value="1"/>
<param name="checkRestrict" value="1"/>
<param name="checkStop" value="0"/>
<param name="checkValues" value="0"/>
<param name="checkNames" value="1"/>
<param name="checkWireStubs" value="1"/>
<param name="checkPolygonWidth" value="0"/>
<param name="useDiameter" value="13"/>
<param name="maxErrors" value="50"/>
</designrules>
<autorouter>
<pass name="Default">
<param name="RoutingGrid" value="50mil"/>
<param name="AutoGrid" value="1"/>
<param name="Efforts" value="0"/>
<param name="TopRouterVariant" value="1"/>
<param name="tpViaShape" value="round"/>
<param name="PrefDir.1" value="a"/>
<param name="PrefDir.2" value="0"/>
<param name="PrefDir.3" value="0"/>
<param name="PrefDir.4" value="0"/>
<param name="PrefDir.5" value="0"/>
<param name="PrefDir.6" value="0"/>
<param name="PrefDir.7" value="0"/>
<param name="PrefDir.8" value="0"/>
<param name="PrefDir.9" value="0"/>
<param name="PrefDir.10" value="0"/>
<param name="PrefDir.11" value="0"/>
<param name="PrefDir.12" value="0"/>
<param name="PrefDir.13" value="0"/>
<param name="PrefDir.14" value="0"/>
<param name="PrefDir.15" value="0"/>
<param name="PrefDir.16" value="a"/>
<param name="cfVia" value="8"/>
<param name="cfNonPref" value="5"/>
<param name="cfChangeDir" value="2"/>
<param name="cfOrthStep" value="2"/>
<param name="cfDiagStep" value="3"/>
<param name="cfExtdStep" value="0"/>
<param name="cfBonusStep" value="1"/>
<param name="cfMalusStep" value="1"/>
<param name="cfPadImpact" value="4"/>
<param name="cfSmdImpact" value="4"/>
<param name="cfBusImpact" value="0"/>
<param name="cfHugging" value="3"/>
<param name="cfAvoid" value="4"/>
<param name="cfPolygon" value="10"/>
<param name="cfBase.1" value="0"/>
<param name="cfBase.2" value="1"/>
<param name="cfBase.3" value="1"/>
<param name="cfBase.4" value="1"/>
<param name="cfBase.5" value="1"/>
<param name="cfBase.6" value="1"/>
<param name="cfBase.7" value="1"/>
<param name="cfBase.8" value="1"/>
<param name="cfBase.9" value="1"/>
<param name="cfBase.10" value="1"/>
<param name="cfBase.11" value="1"/>
<param name="cfBase.12" value="1"/>
<param name="cfBase.13" value="1"/>
<param name="cfBase.14" value="1"/>
<param name="cfBase.15" value="1"/>
<param name="cfBase.16" value="0"/>
<param name="mnVias" value="20"/>
<param name="mnSegments" value="9999"/>
<param name="mnExtdSteps" value="9999"/>
<param name="mnRipupLevel" value="10"/>
<param name="mnRipupSteps" value="100"/>
<param name="mnRipupTotal" value="100"/>
</pass>
<pass name="Follow-me" refer="Default" active="yes">
</pass>
<pass name="Busses" refer="Default" active="yes">
<param name="cfNonPref" value="4"/>
<param name="cfBusImpact" value="4"/>
<param name="cfHugging" value="0"/>
<param name="mnVias" value="0"/>
</pass>
<pass name="Route" refer="Default" active="yes">
</pass>
<pass name="Optimize1" refer="Default" active="yes">
<param name="cfVia" value="99"/>
<param name="cfExtdStep" value="10"/>
<param name="cfHugging" value="1"/>
<param name="mnExtdSteps" value="1"/>
<param name="mnRipupLevel" value="0"/>
</pass>
<pass name="Optimize2" refer="Optimize1" active="yes">
<param name="cfNonPref" value="0"/>
<param name="cfChangeDir" value="6"/>
<param name="cfExtdStep" value="0"/>
<param name="cfBonusStep" value="2"/>
<param name="cfMalusStep" value="2"/>
<param name="cfPadImpact" value="2"/>
<param name="cfSmdImpact" value="2"/>
<param name="cfHugging" value="0"/>
</pass>
<pass name="Optimize3" refer="Optimize2" active="yes">
<param name="cfChangeDir" value="8"/>
<param name="cfPadImpact" value="0"/>
<param name="cfSmdImpact" value="0"/>
</pass>
<pass name="Optimize4" refer="Optimize3" active="yes">
<param name="cfChangeDir" value="25"/>
</pass>
</autorouter>
<elements>
<element name="1572-1039" library="Lab6_Library" package="1572-1039-CIN" value="1572-1039-CIN" x="36" y="75.06" smashed="yes" rot="R270"/>
<element name="1N5820" library="Lab6_Library" package="1N5820" value="1N5820" x="3.98" y="58.37" smashed="yes"/>
<element name="CF18" library="Lab6_Library" package="CF18JT6K20CT" value="CF18JT6K20CT" x="15.08" y="41.76" smashed="yes" rot="R180"/>
<element name="U$1" library="Lab6_Library" package="+-" value="+-" x="5.99" y="73.91" smashed="yes" rot="R270"/>
<element name="U$3" library="Lab6_Library" package="1572-1055-COUT" value="1572-1055-COUT" x="55.21" y="65.4" smashed="yes" rot="R90"/>
<element name="U$5" library="Lab6_Library" package="CPF11K0000FKEE6-R1" value="CPF11K0000KFEE6-R1" x="28.41" y="41.91" smashed="yes"/>
<element name="U$6" library="Lab6_Library" package="M10144" value="M10144" x="30.18" y="36.36" smashed="yes" rot="R180"/>
<element name="U$7" library="Lab6_Library" package="NF123G-302" value="NF123G-302" x="25.52" y="57.16" smashed="yes"/>
<element name="U1" library="LM2576T" package="T05A_TEX" value="LM2576T-ADJ/LF03" x="15.26" y="73.75" smashed="yes" rot="R270">
<attribute name="COPYRIGHT" value="Copyright (C) 2021 Ultra Librarian. All rights reserved." x="-33" y="42" size="1.778" layer="27" rot="R270" display="off"/>
<attribute name="DIGI-KEY_PART_NUMBER_1" value="296-35127-5-ND" x="-33" y="42" size="1.778" layer="27" rot="R270" display="off"/>
<attribute name="DIGI-KEY_PART_NUMBER_2" value="2156-LM2576T-ADJ/LF03-ND" x="-33" y="42" size="1.778" layer="27" rot="R270" display="off"/>
<attribute name="MANUFACTURER_PART_NUMBER" value="LM2576T-ADJ/LF03" x="-33" y="42" size="1.778" layer="27" rot="R270" display="off"/>
<attribute name="MFR_NAME" value="Texas Instruments" x="-33" y="42" size="1.778" layer="27" rot="R270" display="off"/>
<attribute name="NAME" x="12.377" y="76.133" size="1.27" layer="25" ratio="6" rot="SR0"/>
<attribute name="VALUE" x="15.9264" y="76.133" size="1.27" layer="27" ratio="6" rot="SR0"/>
</element>
</elements>
<signals>
<signal name="3.3V">
<contactref element="1N5820" pad="P$1"/>
<contactref element="U1" pad="3"/>
<contactref element="CF18" pad="P$2"/>
<contactref element="U$7" pad="P$2"/>
<contactref element="U1" pad="5"/>
<contactref element="U$1" pad="P$2"/>
<wire x1="15.26" y1="70.3464" x2="7.4264" y2="70.3464" width="1.7" layer="16"/>
<wire x1="7.4264" y1="70.3464" x2="5.99" y2="68.91" width="1.7" layer="16"/>
<wire x1="15.26" y1="66.9428" x2="7.9572" y2="66.9428" width="1.7" layer="16"/>
<wire x1="7.9572" y1="66.9428" x2="5.99" y2="68.91" width="1.7" layer="16"/>
<wire x1="3.98" y1="58.37" x2="3.98" y2="66.98" width="1.7" layer="16"/>
<wire x1="5.91" y1="68.91" x2="5.99" y2="68.91" width="1.7" layer="16"/>
<wire x1="3.98" y1="66.98" x2="5.91" y2="68.91" width="1.7" layer="16"/>
<wire x1="15.26" y1="70.3464" x2="34.5064" y2="70.3464" width="1.7" layer="16"/>
<wire x1="3.98" y1="58.37" x2="11.08" y2="51.27" width="1.7" layer="16"/>
<wire x1="11.08" y1="51.27" x2="11.08" y2="41.76" width="1.7" layer="16"/>
<contactref element="1572-1039" pad="P$2"/>
<contactref element="U$3" pad="P$2"/>
<wire x1="34.5064" y1="70.3464" x2="36" y2="71.84" width="1.7" layer="16"/>
<wire x1="36" y1="71.84" x2="36" y2="73.06" width="1.7" layer="16"/>
<wire x1="36" y1="59.18" x2="36" y2="73.06" width="1.7" layer="16"/>
<wire x1="38.02" y1="57.16" x2="36" y2="59.18" width="1.7" layer="16"/>
<wire x1="36" y1="73.06" x2="54.87" y2="73.06" width="1.7" layer="16"/>
<wire x1="54.87" y1="73.06" x2="55.21" y2="73.4" width="1.7" layer="16"/>
</signal>
<signal name="N$1">
<contactref element="U$6" pad="P$2"/>
<contactref element="U1" pad="2"/>
<contactref element="1N5820" pad="P$2"/>
<wire x1="22.68" y1="36.36" x2="17.64" y2="36.36" width="1.7" layer="1"/>
<wire x1="17.64" y1="36.36" x2="13" y2="41" width="1.7" layer="1"/>
<wire x1="13" y1="58.35" x2="12.98" y2="58.37" width="1.7" layer="1"/>
<wire x1="13" y1="41" x2="13" y2="58.35" width="1.7" layer="1"/>
<wire x1="15.26" y1="72.0482" x2="15.2118" y2="72" width="1.7" layer="1"/>
<wire x1="15.2118" y1="72" x2="12.98" y2="72" width="1.7" layer="1"/>
<wire x1="12.98" y1="72" x2="12.98" y2="58.37" width="1.7" layer="1"/>
</signal>
<signal name="N$2">
<contactref element="U$6" pad="P$1"/>
<contactref element="U$5" pad="P$2"/>
<contactref element="U$7" pad="P$1"/>
<wire x1="25.52" y1="57.16" x2="35.41" y2="47.27" width="1.7" layer="1"/>
<wire x1="35.41" y1="47.27" x2="35.41" y2="41.91" width="1.7" layer="1"/>
<wire x1="37.08" y1="47.27" x2="35.41" y2="47.27" width="1.7" layer="1"/>
<wire x1="35.41" y1="41.91" x2="30.18" y2="36.68" width="1.7" layer="1"/>
<wire x1="30.18" y1="36.68" x2="30.18" y2="36.36" width="1.7" layer="1"/>
<contactref element="U$3" pad="P$1"/>
<wire x1="55.21" y1="65.4" x2="37.08" y2="47.27" width="1.7" layer="1"/>
</signal>
<signal name="N$3">
<contactref element="U$5" pad="P$1"/>
<contactref element="CF18" pad="P$1"/>
<contactref element="U1" pad="4"/>
<wire x1="15.08" y1="41.76" x2="15.23" y2="41.91" width="1.7" layer="1"/>
<wire x1="15.23" y1="41.91" x2="18" y2="41.91" width="1.7" layer="1"/>
<wire x1="18" y1="41.91" x2="28.41" y2="41.91" width="1.7" layer="1"/>
<wire x1="15.26" y1="68.6446" x2="16.3554" y2="68.6446" width="1.7" layer="1"/>
<wire x1="18" y1="67" x2="18" y2="41.91" width="1.7" layer="1"/>
<wire x1="16.3554" y1="68.6446" x2="18" y2="67" width="1.7" layer="1"/>
</signal>
<signal name="N$4">
<contactref element="U1" pad="1"/>
<contactref element="U$1" pad="P$1"/>
<contactref element="1572-1039" pad="P$1"/>
<wire x1="15.26" y1="73.75" x2="31.75" y2="73.75" width="1.7" layer="1"/>
<wire x1="33.06" y1="75.06" x2="36" y2="75.06" width="1.7" layer="1"/>
<wire x1="31.75" y1="73.75" x2="33.06" y2="75.06" width="1.7" layer="1"/>
<wire x1="15.26" y1="73.75" x2="6.15" y2="73.75" width="1.7" layer="1"/>
<wire x1="6.15" y1="73.75" x2="5.99" y2="73.91" width="1.7" layer="1"/>
</signal>
</signals>
<mfgpreviewcolors>
<mfgpreviewcolor name="soldermaskcolor" color="0xC8008000"/>
<mfgpreviewcolor name="silkscreencolor" color="0xFFFEFEFE"/>
<mfgpreviewcolor name="backgroundcolor" color="0xFF282828"/>
<mfgpreviewcolor name="coppercolor" color="0xFFFFBF00"/>
<mfgpreviewcolor name="substratecolor" color="0xFF786E46"/>
</mfgpreviewcolors>
<errors>
<approved hash="19,1,6c21f3621b0abaed"/>
<approved hash="19,1,3528f283f77cb27b"/>
<approved hash="5,1,200ef29e06acfb24"/>
<approved hash="5,1,4cab96e0c64c963c"/>
<approved hash="5,1,c40090bbecb5a8e6"/>
<approved hash="5,1,0c40323394296fa6"/>
<approved hash="5,1,8d03aaa34c92aece"/>
<approved hash="5,1,44c93e6941645298"/>
<approved hash="5,1,cab3ae9fea449e3b"/>
<approved hash="5,1,a9be2bed260949a2"/>
<approved hash="5,1,0b0105d32411ef3f"/>
<approved hash="5,1,8c41ba42dcc12f3e"/>
<approved hash="5,16,0c40323394296fa6"/>
<approved hash="5,16,881a456121467c53"/>
<approved hash="5,16,4a332f906b0a9ec1"/>
<approved hash="5,16,261a4bff87457aca"/>
<approved hash="5,16,8d03aaa34c92aece"/>
<approved hash="5,16,0b0105d32411ef3f"/>
<approved hash="5,16,43e397656cea2804"/>
<approved hash="5,16,88d1441d27be7b18"/>
<approved hash="5,16,8c41ba42dcc12f3e"/>
</errors>
</board>
</drawing>
</eagle>
