G04 EAGLE Gerber RS-274X export*
G75*
%MOMM*%
%FSLAX34Y34*%
%LPD*%
%INTop Copper*%
%IPPOS*%
%AMOC8*
5,1,8,0,0,1.08239X$1,22.5*%
G01*
%ADD10C,1.508000*%
%ADD11C,1.950000*%
%ADD12C,1.008000*%
%ADD13C,1.408000*%
%ADD14C,1.208000*%
%ADD15C,1.108000*%
%ADD16C,1.638300*%
%ADD17C,1.700000*%


D10*
X360000Y750600D03*
X360000Y730600D03*
D11*
X39800Y583700D03*
X129800Y583700D03*
D12*
X150800Y417600D03*
X110800Y417600D03*
D10*
X59900Y739100D03*
X59900Y689100D03*
D13*
X552100Y654000D03*
X552100Y734000D03*
D14*
X284100Y419100D03*
X354100Y419100D03*
D15*
X301800Y363600D03*
X226800Y363600D03*
D10*
X255200Y571600D03*
X380200Y571600D03*
D16*
X152600Y737500D03*
X152600Y720482D03*
X152600Y703464D03*
X152600Y686446D03*
X152600Y669428D03*
D17*
X176400Y363600D02*
X226800Y363600D01*
X176400Y363600D02*
X130000Y410000D01*
X130000Y583500D02*
X129800Y583700D01*
X130000Y583500D02*
X130000Y410000D01*
X152118Y720000D02*
X152600Y720482D01*
X152118Y720000D02*
X129800Y720000D01*
X129800Y583700D01*
X255200Y571600D02*
X354100Y472700D01*
X354100Y419100D01*
X354100Y472700D02*
X370800Y472700D01*
X354100Y419100D02*
X301800Y366800D01*
X301800Y363600D01*
X370800Y472700D02*
X552100Y654000D01*
X152300Y419100D02*
X150800Y417600D01*
X152300Y419100D02*
X180000Y419100D01*
X284100Y419100D01*
X163554Y686446D02*
X152600Y686446D01*
X180000Y670000D02*
X180000Y419100D01*
X180000Y670000D02*
X163554Y686446D01*
X152600Y737500D02*
X317500Y737500D01*
X330600Y750600D02*
X360000Y750600D01*
X330600Y750600D02*
X317500Y737500D01*
X152600Y737500D02*
X61500Y737500D01*
X59900Y739100D01*
M02*
